%YAML 1.1
%TAG !u! tag:unity3d.com,2011:
--- !u!1 &1108858198415616
GameObject:
  m_ObjectHideFlags: 0
  m_CorrespondingSourceObject: {fileID: 0}
  m_PrefabInstance: {fileID: 0}
  m_PrefabAsset: {fileID: 0}
  serializedVersion: 6
  m_Component:
  - component: {fileID: 4544650224233592}
  - component: {fileID: 33378066467571706}
  - component: {fileID: 23980870590709160}
  - component: {fileID: 114065577887166724}
  - component: {fileID: 114632938478053374}
  - component: {fileID: 64140279550804064}
  m_Layer: 0
  m_Name: CSTemplate05
  m_TagString: Untagged
  m_Icon: {fileID: 0}
  m_NavMeshLayer: 0
  m_StaticEditorFlags: 4294967295
  m_IsActive: 1
--- !u!4 &4544650224233592
Transform:
  m_ObjectHideFlags: 0
  m_CorrespondingSourceObject: {fileID: 0}
  m_PrefabInstance: {fileID: 0}
  m_PrefabAsset: {fileID: 0}
  m_GameObject: {fileID: 1108858198415616}
  m_LocalRotation: {x: 0.000000021855694, y: 0, z: -0, w: 1}
  m_LocalPosition: {x: 502.79242, y: 42.316917, z: 1341.8197}
  m_LocalScale: {x: 1, y: 1, z: 1}
  m_Children: []
  m_Father: {fileID: 0}
  m_RootOrder: 0
  m_LocalEulerAnglesHint: {x: 0, y: 0, z: 0}
--- !u!33 &33378066467571706
MeshFilter:
  m_ObjectHideFlags: 0
  m_CorrespondingSourceObject: {fileID: 0}
  m_PrefabInstance: {fileID: 0}
  m_PrefabAsset: {fileID: 0}
  m_GameObject: {fileID: 1108858198415616}
  m_Mesh: {fileID: 0}
--- !u!23 &23980870590709160
MeshRenderer:
  m_ObjectHideFlags: 0
  m_CorrespondingSourceObject: {fileID: 0}
  m_PrefabInstance: {fileID: 0}
  m_PrefabAsset: {fileID: 0}
  m_GameObject: {fileID: 1108858198415616}
  m_Enabled: 1
  m_CastShadows: 2
  m_ReceiveShadows: 1
  m_DynamicOccludee: 1
  m_MotionVectors: 0
  m_LightProbeUsage: 0
  m_ReflectionProbeUsage: 1
  m_RayTracingMode: 2
  m_RenderingLayerMask: 1
  m_RendererPriority: 0
  m_Materials:
  - {fileID: 2100000, guid: 3da26787e2ddb6345887cb30075db27c, type: 2}
  m_StaticBatchInfo:
    firstSubMesh: 0
    subMeshCount: 0
  m_StaticBatchRoot: {fileID: 0}
  m_ProbeAnchor: {fileID: 0}
  m_LightProbeVolumeOverride: {fileID: 0}
  m_ScaleInLightmap: 1
  m_ReceiveGI: 1
  m_PreserveUVs: 0
  m_IgnoreNormalsForChartDetection: 0
  m_ImportantGI: 0
  m_StitchLightmapSeams: 1
  m_SelectedEditorRenderState: 3
  m_MinimumChartSize: 4
  m_AutoUVMaxDistance: 0.5
  m_AutoUVMaxAngle: 89
  m_LightmapParameters: {fileID: 0}
  m_SortingLayerID: 0
  m_SortingLayer: 0
  m_SortingOrder: 0
  m_AdditionalVertexStreams: {fileID: 0}
--- !u!114 &114065577887166724
MonoBehaviour:
  m_ObjectHideFlags: 0
  m_CorrespondingSourceObject: {fileID: 0}
  m_PrefabInstance: {fileID: 0}
  m_PrefabAsset: {fileID: 0}
  m_GameObject: {fileID: 1108858198415616}
  m_Enabled: 1
  m_EditorHideFlags: 0
  m_Script: {fileID: 11500000, guid: 1190d94edcaef6447ad307f350e985ed, type: 3}
  m_Name: 
  m_EditorClassIdentifier: 
  lowFloorBound: {x: 5.77, y: 5, z: 5.42}
  prefabFloors: 4
  prefabDepth: 4
  prefabWidth: 4
  size: {x: 0, y: 0, z: 0}
  scale: 1
  meshOriginal: {fileID: 4300000, guid: ae7f6b6cce0997c4f80f9664482dddb0, type: 3}
  mesh: {fileID: 0}
  floorNumber: 16
  floorHeight: 3
  uniqueMapping: 0
  buildingWidth: 16
  buildingDepth: 24
  normalThreshold: 0.263
  id1: {x: 2, y: 0}
  id2: {x: 0.6, y: 0}
  id3: {x: 0.5, y: 0}
  id4: {x: 3, y: 0}
  materialId1: 20
  materialId2: 6
  materialId3: 5
  materialId4: 30
  materialId5: 0
  divisionId4: 0
  lightnessFront: 0
  lightnessSide: 0
  windowOpen: 1.71
  rooftopObject: {fileID: 0}
  generateLightmappingUV: 0
  pattern: 0.35
  colorVariation: {x: 1.28, y: 0.15, z: 0, w: 0}
  colorVariation2: {x: 0, y: 0, z: 0, w: 0}
  colorVariation3: {x: 0, y: 0, z: 0, w: 0}
  colorVariation4: {x: 0, y: 0, z: 0, w: 0}
  colorVariation5: {x: 0, y: 0, z: 0, w: 0}
  lightsOnOff: 0
  lightsOnOff2: 1.1
  prefabHasVertexInfo: 1
  advertisingPanelCoord: {x: 0, y: 0, z: 0, w: 0}
  lightVec: 1.00002
  lightVec2: 0.00012
  lightVec3: 0.00002
  lightVec4: 1.00002
  lightVec5: 1.00002
  lightVec6: 0.00002
  lightVec7: 0.00002
  lightVec8: 0.00002
  cityRandomizerParent: {fileID: 0}
  parentStreets:
  - {fileID: 0}
  - {fileID: 0}
  - {fileID: 0}
  - {fileID: 0}
  - {fileID: 0}
  connectedSections:
  - {fileID: 0}
  - {fileID: 0}
  - {fileID: 0}
  - {fileID: 0}
  - {fileID: 0}
  roofOffsetX:
  - {x: -5.09, y: -4.78}
  roofOffsetZ:
  - {x: 0.42, y: 6}
  advertOffsetX: []
  advertOffsetZ: []
  advertSide: {x: 0, y: 0, z: 0}
  roofOffsetY:
  - 0.22
  advertOffsetY: []
  hasRooftops: 1
  hasAdvertising: 0
  hasBalcony: 0
  rooftops: {fileID: 0}
  advertising: {fileID: 0}
  balcony: {fileID: 0}
  distort: 1
  distortXZ: 1
  useAdvertising: 1
  borderCol: 0
  thresholdResizeX: 0
  thresholdResizeZ: 0
  thresholdResizeY: 0
  supportSkewing: 0
  skew: 0
  useGraffiti: 0
  autoMap: 0
--- !u!114 &114632938478053374
MonoBehaviour:
  m_ObjectHideFlags: 0
  m_CorrespondingSourceObject: {fileID: 0}
  m_PrefabInstance: {fileID: 0}
  m_PrefabAsset: {fileID: 0}
  m_GameObject: {fileID: 1108858198415616}
  m_Enabled: 1
  m_EditorHideFlags: 0
  m_Script: {fileID: 11500000, guid: 39a91388d79359247b2aa5de0de6f6dc, type: 3}
  m_Name: 
  m_EditorClassIdentifier: 
  instancesX: 139
  instancesZ: 23
  mat: {fileID: 2100000, guid: 71a819dfc509b50428b3c319688e5166, type: 2}
  mesh: {fileID: 0}
  meshOriginal: {fileID: 0}
  greebleElements: []
  offsetX: 26
  offsetZ: 29
  update: 0
  width: 24
  depth: 32
  maxMeshSize: 0
  parentSection: {fileID: 0}
  parentBuilding: {fileID: 0}
  rooftopHolder: {fileID: 0}
  rooftopHolderPrefab: {fileID: 0}
  rooftopElements:
  - {fileID: 1770266728114726, guid: 8ccc03760c0aee04faf1edfae7eb6e65, type: 3}
  - {fileID: 1906058441182334, guid: f8c7537aeff857a41b70dec7a0c6d9b0, type: 3}
  - {fileID: 1292552957532222, guid: 20465f87e92879147a40366a73839ca8, type: 3}
  - {fileID: 1068474993234608, guid: 6fcba06b63b0364439ea46d542b5ddf5, type: 3}
  - {fileID: 1167711001054286, guid: 5367bcdd71af96a4da9c3517de569f3a, type: 3}
  - {fileID: 1142679560735720, guid: acc2ae7b67eab4544b86c5fd5c37524c, type: 3}
  - {fileID: 1147687880919820, guid: 3f0a93e0911c0a94990c1faa109cd46d, type: 3}
  - {fileID: 1334531627779978, guid: 964b62505c55e1746a3263043a545b5b, type: 3}
  - {fileID: 1225639919668734, guid: 174a832485730d740b55981677cb72c8, type: 3}
  - {fileID: 1285039299547322, guid: 926a4c12fe90baa4c860b33ca6911de9, type: 3}
  - {fileID: 1194140255307604, guid: cd360065356e28d43825bce68dc596b8, type: 3}
  - {fileID: 1752540576187076, guid: ee5d91961ea1bd74f9254a9072df6a8d, type: 3}
  bmComponent: {fileID: 114065577887166724}
  parentCity: {fileID: 0}
  randomSeed: 170429
  rh: {fileID: 0}
  greebleMat: {fileID: 2100000, guid: a79ff04ad5ab47a44aa8f300d54d70d4, type: 2}
  lodComponent: {fileID: 0}
  roofTopsObject: {fileID: 0}
  lodDistance: 0.18
  animateLodFade: 1
--- !u!64 &64140279550804064
MeshCollider:
  m_ObjectHideFlags: 0
  m_CorrespondingSourceObject: {fileID: 0}
  m_PrefabInstance: {fileID: 0}
  m_PrefabAsset: {fileID: 0}
  m_GameObject: {fileID: 1108858198415616}
  m_Material: {fileID: 0}
  m_IsTrigger: 0
  m_Enabled: 1
  serializedVersion: 3
  m_Convex: 0
  m_CookingOptions: 30
  m_Mesh: {fileID: 0}
