%YAML 1.1
%TAG !u! tag:unity3d.com,2011:
--- !u!1 &1742490804417222
GameObject:
  m_ObjectHideFlags: 0
  m_CorrespondingSourceObject: {fileID: 0}
  m_PrefabInstance: {fileID: 0}
  m_PrefabAsset: {fileID: 0}
  serializedVersion: 6
  m_Component:
  - component: {fileID: 4977944816374230}
  - component: {fileID: 23855036592847900}
  - component: {fileID: 33421882404404216}
  - component: {fileID: 114559326159085350}
  - component: {fileID: 64413448923474600}
  m_Layer: 0
  m_Name: CSTemplate13
  m_TagString: Untagged
  m_Icon: {fileID: 0}
  m_NavMeshLayer: 0
  m_StaticEditorFlags: 4294967295
  m_IsActive: 1
--- !u!4 &4977944816374230
Transform:
  m_ObjectHideFlags: 0
  m_CorrespondingSourceObject: {fileID: 0}
  m_PrefabInstance: {fileID: 0}
  m_PrefabAsset: {fileID: 0}
  m_GameObject: {fileID: 1742490804417222}
  m_LocalRotation: {x: 0, y: 0, z: 0, w: 1}
  m_LocalPosition: {x: 139.6643, y: -0.76, z: 487.23676}
  m_LocalScale: {x: 1, y: 1, z: 1}
  m_Children: []
  m_Father: {fileID: 0}
  m_RootOrder: 0
  m_LocalEulerAnglesHint: {x: 0, y: 0, z: 0}
--- !u!23 &23855036592847900
MeshRenderer:
  m_ObjectHideFlags: 0
  m_CorrespondingSourceObject: {fileID: 0}
  m_PrefabInstance: {fileID: 0}
  m_PrefabAsset: {fileID: 0}
  m_GameObject: {fileID: 1742490804417222}
  m_Enabled: 1
  m_CastShadows: 2
  m_ReceiveShadows: 1
  m_DynamicOccludee: 1
  m_MotionVectors: 0
  m_LightProbeUsage: 0
  m_ReflectionProbeUsage: 1
  m_RayTracingMode: 2
  m_RenderingLayerMask: 1
  m_RendererPriority: 0
  m_Materials:
  - {fileID: 2100000, guid: 3da26787e2ddb6345887cb30075db27c, type: 2}
  m_StaticBatchInfo:
    firstSubMesh: 0
    subMeshCount: 0
  m_StaticBatchRoot: {fileID: 0}
  m_ProbeAnchor: {fileID: 0}
  m_LightProbeVolumeOverride: {fileID: 0}
  m_ScaleInLightmap: 1
  m_ReceiveGI: 1
  m_PreserveUVs: 0
  m_IgnoreNormalsForChartDetection: 0
  m_ImportantGI: 0
  m_StitchLightmapSeams: 1
  m_SelectedEditorRenderState: 3
  m_MinimumChartSize: 4
  m_AutoUVMaxDistance: 0.5
  m_AutoUVMaxAngle: 89
  m_LightmapParameters: {fileID: 0}
  m_SortingLayerID: 0
  m_SortingLayer: 0
  m_SortingOrder: 0
  m_AdditionalVertexStreams: {fileID: 0}
--- !u!33 &33421882404404216
MeshFilter:
  m_ObjectHideFlags: 0
  m_CorrespondingSourceObject: {fileID: 0}
  m_PrefabInstance: {fileID: 0}
  m_PrefabAsset: {fileID: 0}
  m_GameObject: {fileID: 1742490804417222}
  m_Mesh: {fileID: 0}
--- !u!114 &114559326159085350
MonoBehaviour:
  m_ObjectHideFlags: 0
  m_CorrespondingSourceObject: {fileID: 0}
  m_PrefabInstance: {fileID: 0}
  m_PrefabAsset: {fileID: 0}
  m_GameObject: {fileID: 1742490804417222}
  m_Enabled: 1
  m_EditorHideFlags: 0
  m_Script: {fileID: 11500000, guid: 1190d94edcaef6447ad307f350e985ed, type: 3}
  m_Name: 
  m_EditorClassIdentifier: 
  lowFloorBound: {x: 14.4, y: 4.8, z: 16.88}
  prefabFloors: 8
  prefabDepth: 9
  prefabWidth: 9
  size: {x: 0, y: 0, z: 0}
  scale: 1
  meshOriginal: {fileID: 4300000, guid: 50d7171ea53f63846b16849a7fee0a89, type: 3}
  mesh: {fileID: 0}
  floorNumber: 12
  floorHeight: 3
  uniqueMapping: 35
  buildingWidth: 36
  buildingDepth: 20
  normalThreshold: 0.27
  id1: {x: 2.7, y: 0}
  id2: {x: 0.1, y: 0}
  id3: {x: 1, y: 0}
  id4: {x: 3.9, y: 0}
  materialId1: 27
  materialId2: 1
  materialId3: 10
  materialId4: 39
  materialId5: 0
  divisionId4: 0
  lightnessFront: 0
  lightnessSide: 0
  windowOpen: 9
  rooftopObject: {fileID: 0}
  generateLightmappingUV: 0
  pattern: 0.34
  colorVariation: {x: 4.2, y: 2.79, z: 2.84, w: 3.05}
  colorVariation2: {x: 2.11, y: 4.38, z: 2.15, w: 1.97}
  colorVariation3: {x: 2.12, y: 8.22, z: 0, w: 0}
  colorVariation4: {x: 0, y: 0, z: 0, w: 0}
  colorVariation5: {x: 0, y: 0, z: 0, w: 0}
  lightsOnOff: 2.76
  lightsOnOff2: 1.1
  prefabHasVertexInfo: 1
  advertisingPanelCoord: {x: 0, y: 0, z: 0, w: 0}
  lightVec: 4.22322
  lightVec2: 2.42112
  lightVec3: 0.02802
  lightVec4: 9.00002
  lightVec5: 9.00002
  lightVec6: 0.02802
  lightVec7: 0.00002
  lightVec8: 0.00002
  cityRandomizerParent: {fileID: 0}
  parentStreets:
  - {fileID: 0}
  - {fileID: 0}
  - {fileID: 0}
  - {fileID: 0}
  - {fileID: 0}
  connectedSections:
  - {fileID: 0}
  - {fileID: 0}
  - {fileID: 0}
  - {fileID: 0}
  - {fileID: 0}
  roofOffsetX:
  - {x: -13.29, y: -10.24}
  roofOffsetZ:
  - {x: 13.56, y: 5.4}
  advertOffsetX: []
  advertOffsetZ: []
  advertSide: {x: 0, y: 0, z: 0}
  roofOffsetY:
  - 0
  advertOffsetY: []
  hasRooftops: 0
  hasAdvertising: 0
  hasBalcony: 0
  rooftops: {fileID: 0}
  advertising: {fileID: 0}
  balcony: {fileID: 0}
  distort: 1
  distortXZ: 1
  useAdvertising: 1
  borderCol: 0
  thresholdResizeX: 0
  thresholdResizeZ: 0
  thresholdResizeY: 0
  supportSkewing: 0
  skew: 0
  useGraffiti: 0
  autoMap: 0
--- !u!64 &64413448923474600
MeshCollider:
  m_ObjectHideFlags: 0
  m_CorrespondingSourceObject: {fileID: 0}
  m_PrefabInstance: {fileID: 0}
  m_PrefabAsset: {fileID: 0}
  m_GameObject: {fileID: 1742490804417222}
  m_Material: {fileID: 0}
  m_IsTrigger: 0
  m_Enabled: 1
  serializedVersion: 3
  m_Convex: 0
  m_CookingOptions: 30
  m_Mesh: {fileID: 0}
